{
    "/app.js": "novaassets/app.js?id=7319bf5027431449796c",
    "/app.css": "novaassets/app.css?id=b5a201aa0c15d4d0704a",
    "/vendor.js": "novaassets/vendor.js?id=b30263b2f9d68433c3ce",
    "/manifest.js": "novaassets/manifest.js?id=2d315777967b6001bcf1"
}